{
	"__default__" :
	{
		"mem":"5000MB",
		"time":"01:00:00",
		"p":"thin-shared",
		"c":"1",
		"account":"uscmg",
		"error":"primary.%j.err",
		"output":"primary.%j.out"
	},
	"align":
	{
		"mem":"122880MB",
		"time":"24:00:00",
		"job-name":"align",
		"p":"thinnodes",
		"c":"24",
		"account":"uscmg",
		"error":"primary_align.%j.err",
		"output":"primary_align.%j.out"
	},
	"sort":
	{
		"mem": "16000MB",
		"time": "15:00:00",
		"job-name":"sort",
		"p":"thin-shared",
		"c":"12",
		"account":"uscmg",
		"error":"primary_sort.%j.err",
		"output":"primary_sort.%j.out"
	},
	"mark_duplicates":
	{
		"mem": "5000MB",
		"time": "10:00:00",
		"job-name":"mark_duplicates",
		"p":"thin-shared",
		"c":"12",
		"account":"uscmg",
		"error":"primary_mark_duplicates.%j.err",
		"output":"primary_mark_duplicates.%j.out"
	},
	"index":
	{
		"mem": "5000MB",
		"time": "02:00:00",
		"job-name":"index",
		"p":"thin-shared",
		"c":"1",
		"account":"uscmg",
		"error":"primary_index.%j.err",
		"output":"primary_index.%j.out"
	},
	"cleanup":
	{
		"mem": "5000MB",
		"time": "00:20:00",
		"job-name":"cleanup",
		"p":"thin-shared",
		"c":"1",
		"account":"uscmg",
		"error":"primary_cleanup.%j.err",
		"output":"primary_cleanup.%j.out"
	}
}
