{
	"__default__" :
	{
		"mem":"5000MB",
		"time":"01:00:00",
		"p":"thin-shared",
		"c":"1",
		"account":"uscmg",
		"error":"primary.%j.err",
		"output":"primary.%j.out"
	},
    "index_vcf":
    {
     	"mem": "5000MB",
        "time": "01:00:00",
        "job-name":"index_vcf",
        "p":"thin-shared",
        "c":"1",
        "account":"uscmg",
        "error":"smoove_germinal_index_vcf.%j.err",
        "output":"smoove_germinal_index_vcf.%j.out"
    },
    "smoove_germinal":
    {
        "mem": "122880MB",
        "time": "2:00:00",
        "job-name":"smoove_germinal",
        "p":"thinnodes",
        "c":"24",
        "account":"uscmg",
        "error":"smoove_germinal.%j.err",
        "output":"smoove_germinal.%j.out"
    }
}
