{
	"__default__" :
	{
		"mem":"5000MB",
		"time":"01:00:00",
		"p":"thin-shared",
		"c":"1",
		"account":"uscmg",
		"error":"primary.%j.err",
		"output":"primary.%j.out"
	},
    "canvas_germinal":
    {
        "mem": "15000MB",
        "time": "6:00:00",
        "job-name":"canvas_germinal",
        "p":"thin-shared",
        "c":"3",
        "account":"uscmg",
        "error":"canvas_germinal.%j.err",
        "output":"canvas_germinal.%j.out"
    },
    "plot_canvas_germinal":
    {
        "mem": "5000MB",
        "time": "00:15:00",
        "job-name":"plot_canvas_germinal",
        "p":"thin-shared",
        "c":"1",
        "account":"uscmg",
        "error":"canvas_germinal_plot.%j.err",
        "output":"canvas_germinal_plot.%j.out"
    }
}
