{
	"__default__" :
	{
		"mem":"5000MB",
		"time":"01:00:00",
		"p":"thin-shared",
		"c":"1",
		"account":"other",
		"error":"trafic.%j.err",
		"output":"trafic.%j.out"
	},
    "move_logs":
    {
        "mem": "5000MB",
        "time": "00:10:00",
        "job-name":"end_and_clear",
        "p":"thin-shared",
        "c":"1",
        "account":"other",
        "error":"trafic_end_and_clear.%j.err",
        "output":"trafic_end_and_clear.%j.out"
    },
	"tumour_samtools":
    {
        "mem": "5000MB",
        "time": "5:00:00",
        "job-name":"tumour_samtools",
        "p":"thin-shared",
        "c":"6",
        "account":"other",
        "error":"trafic_tumour_samtools.%j.err",
        "output":"trafic_tumour_samtools.%j.out"
    },
	"normal_samtools":
	{
        "mem": "5000MB",
        "time": "5:00:00",
        "job-name":"normal_samtools",
        "p":"thin-shared",
        "c":"6",
        "account":"other",
        "error":"trafic_normal_samtools.%j.err",
        "output":"trafic_normal_samtools.%j.out"
    },
	"normal_bwamem":
	{
        "mem": "30000MB",
        "time": "5:00:00",
        "job-name":"normal_bwamem",
        "p":"thin-shared",
        "c":"6",
        "account":"other",
        "error":"trafic_normal_bwamem.%j.err",
        "output":"trafic_normal_bwamem.%j.out"
    },
	"tumour_bwamem":
	{
        "mem": "30000MB",
        "time": "5:00:00",
        "job-name":"tumour_bwamem",
        "p":"thin-shared",
        "c":"6",
        "account":"other",
        "error":"trafic_tumour_bwamem.%j.err",
        "output":"trafic_tumour_bwamem.%j.out"
    },
	"tumour_split_by_element_type":
	{
        "mem": "5000MB",
        "time": "02:00:00",
        "job-name":"tumour_split_by_element_type",
        "p":"thin-shared",
        "c":"1",
        "account":"other",
        "error":"trafic_tumour_split_by_element_type.%j.err",
        "output":"trafic_tumour_split_by_element_type.%j.out"
    },
	"normal_split_by_element_type":
	{
        "mem": "5000MB",
        "time": "02:00:00",
        "job-name":"normal_split_by_element_type",
        "p":"thin-shared",
        "c":"1",
        "account":"other",
        "error":"trafic_normal_split_by_element_type.%j.err",
        "output":"trafic_normal_split_by_element_type.%j.out"
    },
	"tumour_clustering":
	{
        "mem": "5000MB",
        "time": "02:00:00",
        "job-name":"tumour_clustering",
        "p":"thin-shared",
        "c":"1",
        "account":"other",
        "error":"trafic_tumour_clustering.%j.err",
        "output":"trafic_tumour_clustering.%j.out"
    },
	"normal_clustering":
	{
        "mem": "5000MB",
        "time": "02:00:00",
        "job-name":"normal_clustering",
        "p":"thin-shared",
        "c":"1",
        "account":"other",
        "error":"trafic_normal_clustering.%j.err",
        "output":"trafic_normal_clustering.%j.out"
    },
	"tumour_cluster_MGE":
	{
        "mem": "5000MB",
        "time": "02:00:00",
        "job-name":"tumour_cluster_MGE",
        "p":"thin-shared",
        "c":"1",
        "account":"other",
        "error":"trafic_tumour_cluster_MGE.%j.err",
        "output":"trafic_tumour_cluster_MGE.%j.out"
    },
	"normal_TEs":
	{
        "mem": "5000MB",
        "time": "02:00:00",
        "job-name":"normal_TEs",
        "p":"thin-shared",
        "c":"1",
        "account":"other",
        "error":"trafic_normal_TEs.%j.err",
        "output":"trafic_normal_TEs.%j.out"
    },
	"tumour_transductions":
	{
        "mem": "5000MB",
        "time": "02:00:00",
        "job-name":"tumour_transductions",
        "p":"thin-shared",
        "c":"1",
        "account":"other",
        "error":"trafic_tumour_transductions.%j.err",
        "output":"trafic_tumour_transductions.%j.out"
    },
	"normal_transductions": 
	{
        "mem": "5000MB",
        "time": "02:00:00",
        "job-name":"normal_transductions",
        "p":"thin-shared",
        "c":"1",
        "account":"other",
        "error":"trafic_normal_transductions.%j.err",
        "output":"trafic_normal_transductions.%j.out"
    },
	"tumour_cluster_transductions":
	{
        "mem": "5000MB",
        "time": "02:00:00",
        "job-name":"tumour_cluster_transductions",
        "p":"thin-shared",
        "c":"1",
        "account":"other",
        "error":"trafic_tumour_cluster_transductions.%j.err",
        "output":"trafic_tumour_cluster_transductions.%j.out"
    },
	"normal_cluster_transductions":
	{
        "mem": "5000MB",
        "time": "02:00:00",
        "job-name":"tumour_cluster_transductions",
        "p":"thin-shared",
        "c":"1",
        "account":"other",
        "error":"trafic_normal_cluster_transductions.%j.err",
        "output":"trafic_normal_cluster_transductions.%j.out"
    },
	"t0_t1_td1_t2_td2":
	{
        "mem": "5000MB",
        "time": "02:00:00",
        "job-name":"t0_t1_td1_t2_td2",
        "p":"thin-shared",
        "c":"1",
        "account":"other",
        "error":"trafic_t0_t1_td1_t2_td2.%j.err",
        "output":"trafic_t0_t1_td1_t2_td2.%j.out"
    },
	"get_teiba_input":
	{
        "mem": "5000MB",
        "time": "00:20:00",
        "job-name":"get_teiba_input",
        "p":"thin-shared",
        "c":"1",
        "account":"other",
        "error":"trafic_get_teiba_input.%j.err",
        "output":"trafic_get_teiba_input.%j.out"
    },
	"run_teiba_pipeline":
	{
        "mem": "5000MB",
        "time": "03:00:00",
        "job-name":"run_teiba_pipeline",
        "p":"thin-shared",
        "c":"1",
        "account":"other",
        "error":"trafic_run_teiba_pipeline.%j.err",
        "output":"trafic_run_teiba_pipeline.%j.out"
    }
}
