{
	"__default__" :
	{
		"mem":"5000MB",
		"time":"01:00:00",
		"p":"thin-shared",
		"c":"1",
		"account":"other",
		"error":"primary.%j.err",
		"output":"primary.%j.out"
	},
    "merge_vcfs":
    {
     	"mem": "5000MB",
        "time": "01:00:00",
        "job-name":"merge_vcfs",
        "p":"thin-shared",
        "c":"1",
        "account":"other",
        "error":"haplotypecaller_merge_vcfs.%j.err",
        "output":"haplotypecaller_merge_vcfs.%j.out"
    },
    "index_vcf":
    {
     	"mem": "5000MB",
        "time": "01:00:00",
        "job-name":"index_vcf",
        "p":"thin-shared",
        "c":"1",
        "account":"other",
        "error":"haplotypecaller_index_vcf.%j.err",
        "output":"haplotypecaller_index_vcf.%j.out"
    },
    "haplotypecaller":
    {
        "mem": "5000MB",
        "time": "12:00:00",
        "job-name":"haplotypecaller",
        "p":"thin-shared",
        "c":"1",
        "account":"other",
        "error":"haplotypecaller.%j.err",
        "output":"haplotypecaller.%j.out"
    },
    "filtrate_haplotypecaller_vcf":
    {
        "mem": "5000MB",
        "time": "2:00:00",
        "job-name":"filtrate_haplotypecaller_vcf",
        "p":"thin-shared",
        "c":"1",
        "account":"other",
        "error":"haplotypecaller_filtrate_vcf.%j.err",
        "output":"haplotypecaller_filtrate_vcf%j.out"
    }   
 }