{
	"__default__" :
	{
		"mem":"5000MB",
		"time":"01:00:00",
		"p":"thin-shared",
		"c":"1",
		"account":"other",
		"error":"primary.%j.err",
		"output":"primary.%j.out"
	},
	"delly_germinal":
    {
        "mem": "30000MB",
        "time": "24:00:00",
        "job-name":"delly_germinal",
        "p":"thin-shared",
        "c":"1",
        "account":"other",
        "error":"delly_germinal.%j.err",
        "output":"delly_germinal.%j.out"
    },
     "index_vcf":
    {
     	"mem": "5000MB",
        "time": "01:00:00",
        "job-name":"index_vcf",
        "p":"thin-shared",
        "c":"1",
        "account":"other",
        "error":"delly_germinal_index_vcf.%j.err",
        "output":"delly_germinal_index_vcf.%j.out"
    },
     "bcf_to_vcf":
    {
     	"mem": "5000MB",
        "time": "01:00:00",
        "job-name":"bcf_to_vcf",
        "p":"thin-shared",
        "c":"1",
        "account":"other",
        "error":"delly_germinal_bcf_to_vcf.%j.err",
        "output":"delly_germinal_bcf_to_vcf.%j.out"
    }
}
