{
	"__default__" :
	{
		"mem":"5000MB",
		"time":"01:00:00",
		"p":"thin-shared",
		"c":"1",
		"account":"other",
		"error":"primary.%j.err",
		"output":"primary.%j.out"
	},
    "index_vcf":
    {
     	"mem": "5000MB",
        "time": "01:00:00",
        "job-name":"index_vcf",
        "p":"thin-shared",
        "c":"1",
        "account":"other",
        "error":"delly_somatic_index_vcf.%j.err",
        "output":"delly_somatic_index_vcf.%j.out"
    },
     "bcf_to_vcf":
    {
     	"mem": "5000MB",
        "time": "01:00:00",
        "job-name":"bcf_to_vcf",
        "p":"thin-shared",
        "c":"1",
        "account":"other",
        "error":"delly_somatic_bcf_to_vcf.%j.err",
        "output":"delly_somatic_bcf_to_vcf.%j.out"
    },
    "delly_somatic":
    {
        "mem": "30000MB",
        "time": "40:00:00",
        "job-name":"delly_somatic",
        "p":"thin-shared",
        "c":"2",
        "account":"other",
        "error":"delly_somatic.%j.err",
        "output":"delly_somatic.%j.out"
    },
    "delly_somatic_filter":
    {
        "mem": "5000MB",
        "time": "2:00:00",
        "job-name":"delly_somatic_filter",
        "p":"thin-shared",
        "c":"1",
        "account":"other",
        "error":"delly_somatic_filter.%j.err",
        "output":"delly_somatic_filter.%j.out"
    }
}
